EESchema Schematic File Version 4
LIBS:lvrb_noMB_Isense-cache
EELAYER 26 0
EELAYER END
$Descr A4 11693 8268
encoding utf-8
Sheet 1 1
Title ""
Date ""
Rev ""
Comp ""
Comment1 ""
Comment2 ""
Comment3 ""
Comment4 ""
$EndDescr
$Comp
L Device:C C101
U 1 1 5B6E7A51
P 1250 1175
F 0 "C101" H 1000 1100 50  0000 L CNN
F 1 "10u" H 1300 1100 50  0000 L CNN
F 2 "Capacitor_SMD:C_0402_1005Metric" H 1288 1025 50  0001 C CNN
F 3 "~" H 1250 1175 50  0001 C CNN
	1    1250 1175
	1    0    0    -1  
$EndComp
Wire Wire Line
	1025 1025 1250 1025
Connection ~ 1250 1025
$Comp
L power:GND #PWR0101
U 1 1 5B6E7C6B
P 1250 1325
F 0 "#PWR0101" H 1250 1075 50  0001 C CNN
F 1 "GND" H 1125 1250 50  0000 C CNN
F 2 "" H 1250 1325 50  0001 C CNN
F 3 "" H 1250 1325 50  0001 C CNN
	1    1250 1325
	1    0    0    -1  
$EndComp
$Comp
L Device:C C111
U 1 1 5B6E7C86
P 1800 1575
F 0 "C111" H 1825 1425 50  0000 L CNN
F 1 "10u" H 1825 1500 50  0000 L CNN
F 2 "Capacitor_SMD:C_0402_1005Metric" H 1838 1425 50  0001 C CNN
F 3 "~" H 1800 1575 50  0001 C CNN
	1    1800 1575
	1    0    0    -1  
$EndComp
$Comp
L Device:C C106
U 1 1 5B6E7D12
P 1600 1575
F 0 "C106" H 1400 1500 50  0000 L CNN
F 1 "10u" H 1625 1500 50  0000 L CNN
F 2 "Capacitor_SMD:C_0402_1005Metric" H 1638 1425 50  0001 C CNN
F 3 "~" H 1600 1575 50  0001 C CNN
	1    1600 1575
	1    0    0    -1  
$EndComp
Wire Wire Line
	1875 1425 1800 1425
Wire Wire Line
	1875 1325 1600 1325
Wire Wire Line
	1600 1325 1600 1425
$Comp
L power:GND #PWR0102
U 1 1 5B6E7E76
P 1600 1725
F 0 "#PWR0102" H 1600 1475 50  0001 C CNN
F 1 "GND" H 1605 1552 50  0000 C CNN
F 2 "" H 1600 1725 50  0001 C CNN
F 3 "" H 1600 1725 50  0001 C CNN
	1    1600 1725
	1    0    0    -1  
$EndComp
$Comp
L power:GND #PWR0103
U 1 1 5B6E7E8B
P 1800 1725
F 0 "#PWR0103" H 1800 1475 50  0001 C CNN
F 1 "GND" H 1805 1552 50  0000 C CNN
F 2 "" H 1800 1725 50  0001 C CNN
F 3 "" H 1800 1725 50  0001 C CNN
	1    1800 1725
	1    0    0    -1  
$EndComp
$Comp
L power:GND #PWR0104
U 1 1 5B6E7F2E
P 2225 1625
F 0 "#PWR0104" H 2225 1375 50  0001 C CNN
F 1 "GND" H 2230 1452 50  0000 C CNN
F 2 "" H 2225 1625 50  0001 C CNN
F 3 "" H 2225 1625 50  0001 C CNN
	1    2225 1625
	1    0    0    -1  
$EndComp
$Comp
L Device:C C116
U 1 1 5B6E7F4D
P 2850 1575
F 0 "C116" H 2625 1500 50  0000 L CNN
F 1 "10u" H 2875 1500 50  0000 L CNN
F 2 "Capacitor_SMD:C_0402_1005Metric" H 2888 1425 50  0001 C CNN
F 3 "~" H 2850 1575 50  0001 C CNN
	1    2850 1575
	1    0    0    -1  
$EndComp
$Comp
L power:GND #PWR0105
U 1 1 5B6E7FDB
P 2850 1725
F 0 "#PWR0105" H 2850 1475 50  0001 C CNN
F 1 "GND" H 2855 1552 50  0000 C CNN
F 2 "" H 2850 1725 50  0001 C CNN
F 3 "" H 2850 1725 50  0001 C CNN
	1    2850 1725
	1    0    0    -1  
$EndComp
Wire Wire Line
	2850 1425 2775 1425
Wire Wire Line
	2850 1425 2850 1275
Wire Wire Line
	2850 1275 2775 1275
Connection ~ 2850 1425
$Comp
L Device:C C121
U 1 1 5B6E81A8
P 3025 1275
F 0 "C121" H 3050 1350 50  0000 L CNN
F 1 "10u" H 3050 1200 50  0000 L CNN
F 2 "Capacitor_SMD:C_0402_1005Metric" H 3063 1125 50  0001 C CNN
F 3 "~" H 3025 1275 50  0001 C CNN
	1    3025 1275
	1    0    0    -1  
$EndComp
$Comp
L power:GND #PWR0106
U 1 1 5B6E820C
P 3025 1425
F 0 "#PWR0106" H 3025 1175 50  0001 C CNN
F 1 "GND" H 3030 1252 50  0000 C CNN
F 2 "" H 3025 1425 50  0001 C CNN
F 3 "" H 3025 1425 50  0001 C CNN
	1    3025 1425
	1    0    0    -1  
$EndComp
Wire Wire Line
	2775 1025 3025 1025
Wire Wire Line
	3025 1025 3025 1125
Wire Wire Line
	2775 1125 3025 1125
Connection ~ 3025 1125
Text Label 1025 1025 0    50   ~ 0
Vin
Text Label 2800 1025 0    50   ~ 0
V2P5_gen
$Comp
L MDJ_compo:ADP7158 U106
U 1 1 5B83173C
P 2325 3100
F 0 "U106" H 2325 3525 50  0000 C CNN
F 1 "ADP7158-12" H 2325 3450 50  0000 C CNN
F 2 "Package_SO:SOIC-8-1EP_3.9x4.9mm_P1.27mm_EP2.35x2.35mm" H 2325 3574 50  0001 C CNN
F 3 "" H 2325 3100 50  0000 C CNN
	1    2325 3100
	1    0    0    -1  
$EndComp
$Comp
L Device:C C126
U 1 1 5B831742
P 1200 3050
F 0 "C126" H 975 2950 50  0000 L CNN
F 1 "10u" H 1250 2950 50  0000 L CNN
F 2 "Capacitor_SMD:C_0402_1005Metric" H 1238 2900 50  0001 C CNN
F 3 "~" H 1200 3050 50  0001 C CNN
	1    1200 3050
	1    0    0    -1  
$EndComp
Wire Wire Line
	975  2900 1200 2900
Connection ~ 1200 2900
$Comp
L power:GND #PWR0133
U 1 1 5B83174F
P 1200 3200
F 0 "#PWR0133" H 1200 2950 50  0001 C CNN
F 1 "GND" H 1205 3027 50  0000 C CNN
F 2 "" H 1200 3200 50  0001 C CNN
F 3 "" H 1200 3200 50  0001 C CNN
	1    1200 3200
	1    0    0    -1  
$EndComp
$Comp
L Device:C C136
U 1 1 5B831755
P 1800 3450
F 0 "C136" H 1825 3525 50  0000 L CNN
F 1 "10u" H 1825 3375 50  0000 L CNN
F 2 "Capacitor_SMD:C_0402_1005Metric" H 1838 3300 50  0001 C CNN
F 3 "~" H 1800 3450 50  0001 C CNN
	1    1800 3450
	1    0    0    -1  
$EndComp
$Comp
L Device:C C131
U 1 1 5B83175B
P 1600 3450
F 0 "C131" H 1400 3375 50  0000 L CNN
F 1 "10u" H 1625 3375 50  0000 L CNN
F 2 "Capacitor_SMD:C_0402_1005Metric" H 1638 3300 50  0001 C CNN
F 3 "~" H 1600 3450 50  0001 C CNN
	1    1600 3450
	1    0    0    -1  
$EndComp
Wire Wire Line
	1875 3300 1800 3300
Wire Wire Line
	1875 3200 1600 3200
Wire Wire Line
	1600 3200 1600 3300
$Comp
L power:GND #PWR0134
U 1 1 5B831764
P 1600 3600
F 0 "#PWR0134" H 1600 3350 50  0001 C CNN
F 1 "GND" H 1605 3427 50  0000 C CNN
F 2 "" H 1600 3600 50  0001 C CNN
F 3 "" H 1600 3600 50  0001 C CNN
	1    1600 3600
	1    0    0    -1  
$EndComp
$Comp
L power:GND #PWR0135
U 1 1 5B83176A
P 1800 3600
F 0 "#PWR0135" H 1800 3350 50  0001 C CNN
F 1 "GND" H 1805 3427 50  0000 C CNN
F 2 "" H 1800 3600 50  0001 C CNN
F 3 "" H 1800 3600 50  0001 C CNN
	1    1800 3600
	1    0    0    -1  
$EndComp
$Comp
L power:GND #PWR0136
U 1 1 5B831770
P 2225 3500
F 0 "#PWR0136" H 2225 3250 50  0001 C CNN
F 1 "GND" H 2230 3327 50  0000 C CNN
F 2 "" H 2225 3500 50  0001 C CNN
F 3 "" H 2225 3500 50  0001 C CNN
	1    2225 3500
	1    0    0    -1  
$EndComp
$Comp
L Device:C C141
U 1 1 5B831776
P 2850 3450
F 0 "C141" H 2650 3375 50  0000 L CNN
F 1 "10u" H 2875 3375 50  0000 L CNN
F 2 "Capacitor_SMD:C_0402_1005Metric" H 2888 3300 50  0001 C CNN
F 3 "~" H 2850 3450 50  0001 C CNN
	1    2850 3450
	1    0    0    -1  
$EndComp
$Comp
L power:GND #PWR0137
U 1 1 5B83177C
P 2850 3600
F 0 "#PWR0137" H 2850 3350 50  0001 C CNN
F 1 "GND" H 2855 3427 50  0000 C CNN
F 2 "" H 2850 3600 50  0001 C CNN
F 3 "" H 2850 3600 50  0001 C CNN
	1    2850 3600
	1    0    0    -1  
$EndComp
Wire Wire Line
	2850 3300 2775 3300
Wire Wire Line
	2850 3300 2850 3150
Wire Wire Line
	2850 3150 2775 3150
Connection ~ 2850 3300
$Comp
L Device:C C146
U 1 1 5B831786
P 3025 3150
F 0 "C146" H 3050 3225 50  0000 L CNN
F 1 "10u" H 3050 3075 50  0000 L CNN
F 2 "Capacitor_SMD:C_0402_1005Metric" H 3063 3000 50  0001 C CNN
F 3 "~" H 3025 3150 50  0001 C CNN
	1    3025 3150
	1    0    0    -1  
$EndComp
$Comp
L power:GND #PWR0138
U 1 1 5B83178C
P 3025 3300
F 0 "#PWR0138" H 3025 3050 50  0001 C CNN
F 1 "GND" H 3030 3127 50  0000 C CNN
F 2 "" H 3025 3300 50  0001 C CNN
F 3 "" H 3025 3300 50  0001 C CNN
	1    3025 3300
	1    0    0    -1  
$EndComp
Wire Wire Line
	2775 2900 3025 2900
Wire Wire Line
	3025 2900 3025 3000
Wire Wire Line
	2775 3000 3025 3000
Connection ~ 3025 3000
Text Label 975  2900 0    50   ~ 0
Vin
Text Label 2800 2900 0    50   ~ 0
V1P2_gen
Text Notes 7350 7050 0    100  ~ 0
micro-LVRB board\nwith Isense for latch-up detection\nControled by I2C-2.5V from FEAD board
$Comp
L MDJ_compo:ADP7158-25 U101
U 1 1 5B6A042F
P 2325 1225
F 0 "U101" H 2325 1650 50  0000 C CNN
F 1 "ADP7158-25" H 2325 1575 50  0000 C CNN
F 2 "Package_SO:SOIC-8-1EP_3.9x4.9mm_P1.27mm_EP2.35x2.35mm" H 2325 1225 50  0001 C CNN
F 3 "" H 2325 1225 50  0000 C CNN
	1    2325 1225
	1    0    0    -1  
$EndComp
$Comp
L power:GND #PWR0193
U 1 1 5B700C03
P 7900 5950
F 0 "#PWR0193" H 7900 5700 50  0001 C CNN
F 1 "GND" H 7905 5777 50  0000 C CNN
F 2 "" H 7900 5950 50  0001 C CNN
F 3 "" H 7900 5950 50  0001 C CNN
	1    7900 5950
	1    0    0    -1  
$EndComp
Text Label 7650 5750 0    50   ~ 0
Vin
$Comp
L power:PWR_FLAG #FLG0101
U 1 1 5B84D7CF
P 7825 5750
F 0 "#FLG0101" H 7825 5825 50  0001 C CNN
F 1 "PWR_FLAG" H 7825 5900 50  0000 C CNN
F 2 "" H 7825 5750 50  0001 C CNN
F 3 "~" H 7825 5750 50  0001 C CNN
	1    7825 5750
	1    0    0    -1  
$EndComp
Connection ~ 7825 5750
Wire Wire Line
	7825 5750 7650 5750
Wire Wire Line
	7900 5950 7700 5950
Wire Wire Line
	7700 5950 7700 6000
$Comp
L power:PWR_FLAG #FLG0102
U 1 1 5B86C16F
P 7700 6000
F 0 "#FLG0102" H 7700 6075 50  0001 C CNN
F 1 "PWR_FLAG" H 7725 6175 50  0000 C CNN
F 2 "" H 7700 6000 50  0001 C CNN
F 3 "~" H 7700 6000 50  0001 C CNN
	1    7700 6000
	-1   0    0    1   
$EndComp
$Comp
L Device:C C176
U 1 1 5B86CCE2
P 8200 5900
F 0 "C176" H 8225 5975 50  0000 L CNN
F 1 "1000u" H 8225 5825 50  0000 L CNN
F 2 "Capacitor_THT:CP_Radial_D8.0mm_P3.50mm" H 8238 5750 50  0001 C CNN
F 3 "~" H 8200 5900 50  0001 C CNN
	1    8200 5900
	1    0    0    -1  
$EndComp
$Comp
L power:GND #PWR0195
U 1 1 5B88AB85
P 8200 6050
F 0 "#PWR0195" H 8200 5800 50  0001 C CNN
F 1 "GND" H 8205 5877 50  0000 C CNN
F 2 "" H 8200 6050 50  0001 C CNN
F 3 "" H 8200 6050 50  0001 C CNN
	1    8200 6050
	1    0    0    -1  
$EndComp
$Comp
L Mechanical:MountingHole MH101
U 1 1 5B9D562C
P 9950 5700
F 0 "MH101" H 10050 5746 50  0000 L CNN
F 1 "MountingHole" H 10050 5655 50  0000 L CNN
F 2 "MountingHole:MountingHole_2.7mm_M2.5" H 9950 5700 50  0001 C CNN
F 3 "~" H 9950 5700 50  0001 C CNN
	1    9950 5700
	1    0    0    -1  
$EndComp
$Comp
L Mechanical:MountingHole MH102
U 1 1 5B9D5954
P 9950 5900
F 0 "MH102" H 10050 5946 50  0000 L CNN
F 1 "MountingHole" H 10050 5855 50  0000 L CNN
F 2 "MountingHole:MountingHole_2.7mm_M2.5" H 9950 5900 50  0001 C CNN
F 3 "~" H 9950 5900 50  0001 C CNN
	1    9950 5900
	1    0    0    -1  
$EndComp
Text Label 2525 6525 0    60   ~ 0
Leak_B
Text Label 2525 6425 0    60   ~ 0
Ch_B
Text Label 2525 5225 0    60   ~ 0
Leak_D
Text Label 2525 5125 0    60   ~ 0
Ch_D
Wire Wire Line
	1675 4525 1675 4725
Wire Wire Line
	1425 4825 1775 4825
Wire Wire Line
	1675 5125 1775 5125
Connection ~ 1675 4725
Wire Wire Line
	1675 6025 1775 6025
Connection ~ 1675 5125
Wire Wire Line
	1675 6425 1775 6425
Connection ~ 1675 6025
Wire Wire Line
	1675 6825 1775 6825
Connection ~ 1675 6425
Wire Wire Line
	1425 5225 1775 5225
Connection ~ 1425 4825
Wire Wire Line
	1425 6125 1775 6125
Connection ~ 1425 5225
Wire Wire Line
	1425 6525 1775 6525
Connection ~ 1425 6125
Wire Wire Line
	1425 6925 1775 6925
Connection ~ 1425 6525
Wire Wire Line
	1775 4925 1575 4925
Wire Wire Line
	1575 4925 1575 5025
Wire Wire Line
	1775 5025 1575 5025
Connection ~ 1575 5025
Wire Wire Line
	1775 5325 1575 5325
Connection ~ 1575 5325
Wire Wire Line
	1775 5425 1575 5425
Connection ~ 1575 5425
Wire Wire Line
	1775 5525 1575 5525
Connection ~ 1575 5525
Wire Wire Line
	1775 5625 1575 5625
Connection ~ 1575 5625
Wire Wire Line
	1575 5725 1775 5725
Connection ~ 1575 5725
Wire Wire Line
	1775 5825 1575 5825
Connection ~ 1575 5825
Wire Wire Line
	1775 5925 1575 5925
Connection ~ 1575 5925
Wire Wire Line
	1775 6225 1575 6225
Connection ~ 1575 6225
Wire Wire Line
	1775 6325 1575 6325
Connection ~ 1575 6325
Wire Wire Line
	1775 6625 1575 6625
Connection ~ 1575 6625
Wire Wire Line
	1775 6725 1575 6725
Connection ~ 1575 6725
Wire Wire Line
	1775 7025 1575 7025
Connection ~ 1575 7025
Wire Wire Line
	2275 6425 2725 6425
Wire Wire Line
	2275 5125 2725 5125
Wire Wire Line
	2275 4625 2375 4625
Wire Wire Line
	2375 4625 2375 4925
Wire Wire Line
	2275 4925 2375 4925
Connection ~ 2375 4925
Wire Wire Line
	2275 5025 2375 5025
Connection ~ 2375 5025
Wire Wire Line
	2275 5325 2375 5325
Connection ~ 2375 5325
Wire Wire Line
	2275 5425 2375 5425
Connection ~ 2375 5425
Wire Wire Line
	2275 5525 2375 5525
Connection ~ 2375 5525
Wire Wire Line
	2275 5825 2375 5825
Connection ~ 2375 5825
Wire Wire Line
	2275 5925 2375 5925
Connection ~ 2375 5925
Wire Wire Line
	2275 6225 2375 6225
Connection ~ 2375 6225
Wire Wire Line
	2275 6325 2375 6325
Connection ~ 2375 6325
Wire Wire Line
	2275 6625 2375 6625
Connection ~ 2375 6625
Wire Wire Line
	2275 6725 2375 6725
Connection ~ 2375 6725
Wire Wire Line
	2275 7025 2375 7025
Connection ~ 2375 7025
Wire Wire Line
	1675 4725 1775 4725
Wire Wire Line
	1675 4725 1675 5125
Wire Wire Line
	1675 5125 1675 6025
Wire Wire Line
	1675 6025 1675 6425
Wire Wire Line
	1675 6425 1675 6825
Wire Wire Line
	1425 4825 1425 5225
Wire Wire Line
	1425 5225 1425 6125
Wire Wire Line
	1425 6125 1425 6525
Wire Wire Line
	1425 6525 1425 6925
Wire Wire Line
	1575 5025 1575 5325
Wire Wire Line
	1575 5325 1575 5425
Wire Wire Line
	1575 5425 1575 5525
Wire Wire Line
	1575 5525 1575 5625
Wire Wire Line
	1575 5625 1575 5725
Wire Wire Line
	1575 5725 1575 5825
Wire Wire Line
	1575 5825 1575 5925
Wire Wire Line
	1575 5925 1575 6225
Wire Wire Line
	1575 6225 1575 6325
Wire Wire Line
	1575 6325 1575 6625
Wire Wire Line
	1575 6625 1575 6725
Wire Wire Line
	1575 6725 1575 7025
Wire Wire Line
	1575 7025 1575 7175
Wire Wire Line
	2375 4925 2375 5025
Wire Wire Line
	2375 5025 2375 5325
Wire Wire Line
	2375 5325 2375 5425
Wire Wire Line
	2375 5425 2375 5525
Wire Wire Line
	2375 5525 2375 5825
Wire Wire Line
	2375 5825 2375 5925
Wire Wire Line
	2375 5925 2375 6225
Wire Wire Line
	2375 6225 2375 6325
Wire Wire Line
	2375 6325 2375 6625
Wire Wire Line
	2375 6625 2375 6725
Wire Wire Line
	2375 6725 2375 7025
Wire Wire Line
	2375 7025 2375 7175
$Comp
L MDJ_compo:CONN_IPS1-125 P101
U 1 1 5CAF7BB9
P 2025 5825
F 0 "P101" H 2025 7240 50  0000 C CNN
F 1 "CONN_IPS1-125" H 2025 7149 50  0000 C CNN
F 2 "MDJ_mod:Samtec_IPS125_R" H 2025 5075 50  0001 C CNN
F 3 "" H 2025 5075 50  0000 C CNN
	1    2025 5825
	1    0    0    -1  
$EndComp
Wire Wire Line
	1425 4525 1425 4825
Text Label 2525 6925 0    60   ~ 0
Leak_A
Text Label 2525 6825 0    60   ~ 0
Ch_A
Wire Wire Line
	2275 6825 2725 6825
Text Label 2525 6125 0    60   ~ 0
Leak_C
Text Label 2525 6025 0    60   ~ 0
Ch_C
Wire Wire Line
	2275 6025 2725 6025
Text Label 2525 5725 0    60   ~ 0
Temp-
Text Label 2525 5625 0    60   ~ 0
Temp+
Wire Wire Line
	2275 5625 2725 5625
Text Label 2525 4825 0    60   ~ 0
Leak_E
Text Label 2525 4725 0    60   ~ 0
Ch_E
Wire Wire Line
	2275 4725 2725 4725
Text Label 1425 4525 1    50   ~ 0
V1P2
Text Label 1675 4525 1    50   ~ 0
V2P5
$Comp
L Device:C C102
U 1 1 5CA07E0D
P 3475 4725
F 0 "C102" V 3525 4900 50  0000 L CNN
F 1 "200p" V 3425 4775 50  0000 L CNN
F 2 "Capacitor_SMD:C_0402_1005Metric" H 3513 4575 50  0001 C CNN
F 3 "~" H 3475 4725 50  0001 C CNN
	1    3475 4725
	0    1    1    0   
$EndComp
$Comp
L Device:R R101
U 1 1 5CA07ED8
P 2875 4725
F 0 "R101" V 2800 4650 50  0000 L CNN
F 1 "2" V 2875 4700 50  0000 L CNN
F 2 "Resistor_SMD:R_0402_1005Metric" V 2805 4725 50  0001 C CNN
F 3 "~" H 2875 4725 50  0001 C CNN
	1    2875 4725
	0    1    1    0   
$EndComp
$Comp
L Device:L L101
U 1 1 5CA0C237
P 3175 4725
F 0 "L101" V 2997 4725 50  0000 C CNN
F 1 "82n" V 3088 4725 50  0000 C CNN
F 2 "Inductor_SMD:L_0402_1005Metric" H 3175 4725 50  0001 C CNN
F 3 "~" H 3175 4725 50  0001 C CNN
	1    3175 4725
	0    1    1    0   
$EndComp
Wire Wire Line
	3625 4825 3625 4725
Wire Wire Line
	2275 4825 3625 4825
$Comp
L Device:C C103
U 1 1 5CA14847
P 3475 5125
F 0 "C103" V 3525 5300 50  0000 L CNN
F 1 "200p" V 3425 5175 50  0000 L CNN
F 2 "Capacitor_SMD:C_0402_1005Metric" H 3513 4975 50  0001 C CNN
F 3 "~" H 3475 5125 50  0001 C CNN
	1    3475 5125
	0    1    1    0   
$EndComp
$Comp
L Device:R R102
U 1 1 5CA1484D
P 2875 5125
F 0 "R102" V 2800 5050 50  0000 L CNN
F 1 "2" V 2875 5100 50  0000 L CNN
F 2 "Resistor_SMD:R_0402_1005Metric" V 2805 5125 50  0001 C CNN
F 3 "~" H 2875 5125 50  0001 C CNN
	1    2875 5125
	0    1    1    0   
$EndComp
$Comp
L Device:L L102
U 1 1 5CA14853
P 3175 5125
F 0 "L102" V 2997 5125 50  0000 C CNN
F 1 "82n" V 3088 5125 50  0000 C CNN
F 2 "Inductor_SMD:L_0402_1005Metric" H 3175 5125 50  0001 C CNN
F 3 "~" H 3175 5125 50  0001 C CNN
	1    3175 5125
	0    1    1    0   
$EndComp
Wire Wire Line
	3625 5225 3625 5125
$Comp
L Device:C C104
U 1 1 5CA18B7B
P 3475 6025
F 0 "C104" V 3525 6200 50  0000 L CNN
F 1 "200p" V 3425 6075 50  0000 L CNN
F 2 "Capacitor_SMD:C_0402_1005Metric" H 3513 5875 50  0001 C CNN
F 3 "~" H 3475 6025 50  0001 C CNN
	1    3475 6025
	0    1    1    0   
$EndComp
$Comp
L Device:R R103
U 1 1 5CA18B81
P 2875 6025
F 0 "R103" V 2800 5950 50  0000 L CNN
F 1 "2" V 2875 6000 50  0000 L CNN
F 2 "Resistor_SMD:R_0402_1005Metric" V 2805 6025 50  0001 C CNN
F 3 "~" H 2875 6025 50  0001 C CNN
	1    2875 6025
	0    1    1    0   
$EndComp
$Comp
L Device:L L103
U 1 1 5CA18B87
P 3175 6025
F 0 "L103" V 2997 6025 50  0000 C CNN
F 1 "82n" V 3088 6025 50  0000 C CNN
F 2 "Inductor_SMD:L_0402_1005Metric" H 3175 6025 50  0001 C CNN
F 3 "~" H 3175 6025 50  0001 C CNN
	1    3175 6025
	0    1    1    0   
$EndComp
Wire Wire Line
	3625 6125 3625 6025
$Comp
L Device:C C105
U 1 1 5CA21006
P 3475 6425
F 0 "C105" V 3525 6600 50  0000 L CNN
F 1 "200p" V 3425 6475 50  0000 L CNN
F 2 "Capacitor_SMD:C_0402_1005Metric" H 3513 6275 50  0001 C CNN
F 3 "~" H 3475 6425 50  0001 C CNN
	1    3475 6425
	0    1    1    0   
$EndComp
$Comp
L Device:R R104
U 1 1 5CA2100C
P 2875 6425
F 0 "R104" V 2800 6350 50  0000 L CNN
F 1 "2" V 2875 6400 50  0000 L CNN
F 2 "Resistor_SMD:R_0402_1005Metric" V 2805 6425 50  0001 C CNN
F 3 "~" H 2875 6425 50  0001 C CNN
	1    2875 6425
	0    1    1    0   
$EndComp
$Comp
L Device:L L104
U 1 1 5CA21012
P 3175 6425
F 0 "L104" V 2997 6425 50  0000 C CNN
F 1 "82n" V 3088 6425 50  0000 C CNN
F 2 "Inductor_SMD:L_0402_1005Metric" H 3175 6425 50  0001 C CNN
F 3 "~" H 3175 6425 50  0001 C CNN
	1    3175 6425
	0    1    1    0   
$EndComp
Wire Wire Line
	3625 6525 3625 6425
$Comp
L Device:C C107
U 1 1 5CA25343
P 3475 6825
F 0 "C107" V 3525 7000 50  0000 L CNN
F 1 "200p" V 3425 6875 50  0000 L CNN
F 2 "Capacitor_SMD:C_0402_1005Metric" H 3513 6675 50  0001 C CNN
F 3 "~" H 3475 6825 50  0001 C CNN
	1    3475 6825
	0    1    1    0   
$EndComp
$Comp
L Device:R R105
U 1 1 5CA25349
P 2875 6825
F 0 "R105" V 2800 6750 50  0000 L CNN
F 1 "2" V 2875 6800 50  0000 L CNN
F 2 "Resistor_SMD:R_0402_1005Metric" V 2805 6825 50  0001 C CNN
F 3 "~" H 2875 6825 50  0001 C CNN
	1    2875 6825
	0    1    1    0   
$EndComp
$Comp
L Device:L L105
U 1 1 5CA2534F
P 3175 6825
F 0 "L105" V 2997 6825 50  0000 C CNN
F 1 "82n" V 3088 6825 50  0000 C CNN
F 2 "Inductor_SMD:L_0402_1005Metric" H 3175 6825 50  0001 C CNN
F 3 "~" H 3175 6825 50  0001 C CNN
	1    3175 6825
	0    1    1    0   
$EndComp
Wire Wire Line
	3625 6925 3625 6825
Wire Wire Line
	2275 6525 3625 6525
Wire Wire Line
	2275 6125 3625 6125
Wire Wire Line
	2275 5225 3625 5225
$Comp
L Connector:Barrel_Jack_Switch J101
U 1 1 5CA50B6B
P 7350 5850
F 0 "J101" H 7405 6167 50  0000 C CNN
F 1 "Barrel_Jack_Switch" H 7405 6076 50  0000 C CNN
F 2 "MDJ_mod:Barrel_Jack_1608726" H 7400 5810 50  0001 C CNN
F 3 "~" H 7400 5810 50  0001 C CNN
	1    7350 5850
	1    0    0    -1  
$EndComp
Connection ~ 7700 5950
Wire Wire Line
	7700 5950 7650 5950
Wire Wire Line
	7825 5750 8200 5750
Wire Wire Line
	7650 5850 7700 5850
Wire Wire Line
	7700 5850 7700 5950
Wire Wire Line
	2275 6925 3625 6925
$Comp
L power:GND #PWR0107
U 1 1 5CA5D9B8
P 1575 7175
F 0 "#PWR0107" H 1575 6925 50  0001 C CNN
F 1 "GND" H 1580 7002 50  0000 C CNN
F 2 "" H 1575 7175 50  0001 C CNN
F 3 "" H 1575 7175 50  0001 C CNN
	1    1575 7175
	1    0    0    -1  
$EndComp
$Comp
L power:GND #PWR0108
U 1 1 5CA5DB8F
P 2375 7175
F 0 "#PWR0108" H 2375 6925 50  0001 C CNN
F 1 "GND" H 2380 7002 50  0000 C CNN
F 2 "" H 2375 7175 50  0001 C CNN
F 3 "" H 2375 7175 50  0001 C CNN
	1    2375 7175
	1    0    0    -1  
$EndComp
$Comp
L MDJ_compo:SMA P102
U 1 1 5CA8D73E
P 5025 4425
F 0 "P102" H 5126 4401 50  0000 L CNN
F 1 "SMA" H 5126 4310 50  0000 L CNN
F 2 "MDJ_mod:SMA_Amphenol_132134-11_Vertical" H 5025 4425 50  0001 C CNN
F 3 "" H 5025 4425 50  0000 C CNN
	1    5025 4425
	1    0    0    -1  
$EndComp
$Comp
L Device:R R111
U 1 1 5CA8D9E3
P 4750 4575
F 0 "R111" V 4675 4500 50  0000 L CNN
F 1 "50" V 4750 4550 50  0000 L CNN
F 2 "Resistor_SMD:R_0402_1005Metric" V 4680 4575 50  0001 C CNN
F 3 "~" H 4750 4575 50  0001 C CNN
	1    4750 4575
	-1   0    0    1   
$EndComp
$Comp
L power:GND #PWR0109
U 1 1 5CA8DAD1
P 5025 4625
F 0 "#PWR0109" H 5025 4375 50  0001 C CNN
F 1 "GND" H 5030 4452 50  0000 C CNN
F 2 "" H 5025 4625 50  0001 C CNN
F 3 "" H 5025 4625 50  0001 C CNN
	1    5025 4625
	1    0    0    -1  
$EndComp
$Comp
L power:GND #PWR0110
U 1 1 5CA8DB20
P 4750 4725
F 0 "#PWR0110" H 4750 4475 50  0001 C CNN
F 1 "GND" H 4755 4552 50  0000 C CNN
F 2 "" H 4750 4725 50  0001 C CNN
F 3 "" H 4750 4725 50  0001 C CNN
	1    4750 4725
	1    0    0    -1  
$EndComp
Wire Wire Line
	4750 4425 4875 4425
$Comp
L Device:R R106
U 1 1 5CA91D41
P 3950 4550
F 0 "R106" V 3875 4475 50  0000 L CNN
F 1 "10k" V 3950 4500 50  0000 L CNN
F 2 "Resistor_SMD:R_0402_1005Metric" V 3880 4550 50  0001 C CNN
F 3 "~" H 3950 4550 50  0001 C CNN
	1    3950 4550
	0    -1   -1   0   
$EndComp
$Comp
L Device:R R107
U 1 1 5CA95FE6
P 3950 5000
F 0 "R107" V 3875 4925 50  0000 L CNN
F 1 "10k" V 3950 4950 50  0000 L CNN
F 2 "Resistor_SMD:R_0402_1005Metric" V 3880 5000 50  0001 C CNN
F 3 "~" H 3950 5000 50  0001 C CNN
	1    3950 5000
	0    -1   -1   0   
$EndComp
$Comp
L Device:R R108
U 1 1 5CA9606A
P 3950 5900
F 0 "R108" V 3875 5825 50  0000 L CNN
F 1 "10k" V 3950 5850 50  0000 L CNN
F 2 "Resistor_SMD:R_0402_1005Metric" V 3880 5900 50  0001 C CNN
F 3 "~" H 3950 5900 50  0001 C CNN
	1    3950 5900
	0    -1   -1   0   
$EndComp
$Comp
L Device:R R109
U 1 1 5CA96108
P 3950 6300
F 0 "R109" V 3875 6225 50  0000 L CNN
F 1 "10k" V 3950 6250 50  0000 L CNN
F 2 "Resistor_SMD:R_0402_1005Metric" V 3880 6300 50  0001 C CNN
F 3 "~" H 3950 6300 50  0001 C CNN
	1    3950 6300
	0    -1   -1   0   
$EndComp
$Comp
L Device:R R110
U 1 1 5CA96188
P 3950 6700
F 0 "R110" V 3875 6625 50  0000 L CNN
F 1 "10k" V 3950 6650 50  0000 L CNN
F 2 "Resistor_SMD:R_0402_1005Metric" V 3880 6700 50  0001 C CNN
F 3 "~" H 3950 6700 50  0001 C CNN
	1    3950 6700
	0    -1   -1   0   
$EndComp
Wire Wire Line
	4100 4425 4100 4550
Wire Wire Line
	4100 4550 4100 5000
Connection ~ 4100 4550
Wire Wire Line
	4100 5000 4100 5900
Connection ~ 4100 5000
Wire Wire Line
	4100 5900 4100 6300
Connection ~ 4100 5900
Wire Wire Line
	4100 6300 4100 6700
Connection ~ 4100 6300
Wire Wire Line
	3800 4550 3325 4550
Wire Wire Line
	3325 4550 3325 4725
Connection ~ 3325 4725
Wire Wire Line
	3800 5000 3325 5000
Wire Wire Line
	3325 5000 3325 5125
Connection ~ 3325 5125
Wire Wire Line
	3800 5900 3325 5900
Wire Wire Line
	3325 5900 3325 6025
Connection ~ 3325 6025
Wire Wire Line
	3800 6300 3325 6300
Wire Wire Line
	3325 6300 3325 6425
Connection ~ 3325 6425
Wire Wire Line
	3800 6700 3325 6700
Wire Wire Line
	3325 6700 3325 6825
Connection ~ 3325 6825
Wire Wire Line
	4100 4425 4750 4425
Connection ~ 4750 4425
$Comp
L MDJ_compo:LTC2945 U103
U 1 1 5CE99FF9
P 4500 1375
F 0 "U103" H 4900 875 50  0000 C CNN
F 1 "LTC2945" H 5025 775 50  0000 C CNN
F 2 "Package_SO:MSOP-12_3x4mm_P0.65mm" H 3675 850 50  0001 C CNN
F 3 "http://cds.linear.com/docs/en/datasheet/2945fb.pdf" H 3900 1875 50  0001 C CNN
	1    4500 1375
	1    0    0    -1  
$EndComp
$Comp
L power:GND #PWR0111
U 1 1 5CEC24DB
P 4500 1925
F 0 "#PWR0111" H 4500 1675 50  0001 C CNN
F 1 "GND" H 4505 1752 50  0000 C CNN
F 2 "" H 4500 1925 50  0001 C CNN
F 3 "" H 4500 1925 50  0001 C CNN
	1    4500 1925
	1    0    0    -1  
$EndComp
$Comp
L Device:R R117
U 1 1 5CEC298C
P 4500 825
F 0 "R117" V 4425 750 50  0000 L CNN
F 1 "0.2" V 4500 775 50  0000 L CNN
F 2 "Resistor_SMD:R_1206_3216Metric" V 4430 825 50  0001 C CNN
F 3 "~" H 4500 825 50  0001 C CNN
	1    4500 825 
	0    1    1    0   
$EndComp
Wire Wire Line
	4350 825  4300 825 
Wire Wire Line
	4650 825  4700 825 
Wire Wire Line
	4300 825  3900 825 
Connection ~ 4300 825 
Text Label 3900 825  0    50   ~ 0
V2P5_gen
Text Label 4875 825  0    50   ~ 0
V2P5
Wire Wire Line
	4700 825  5050 825 
Connection ~ 4700 825 
$Comp
L Device:C C109
U 1 1 5CEEA110
P 3700 1325
F 0 "C109" H 3725 1400 50  0000 L CNN
F 1 "10u" H 3725 1250 50  0000 L CNN
F 2 "Capacitor_SMD:C_0402_1005Metric" H 3738 1175 50  0001 C CNN
F 3 "~" H 3700 1325 50  0001 C CNN
	1    3700 1325
	1    0    0    -1  
$EndComp
Wire Wire Line
	3950 1175 3900 1175
Wire Wire Line
	3900 1175 3900 1275
Wire Wire Line
	3900 1275 3950 1275
Connection ~ 3900 1175
Wire Wire Line
	3900 1175 3700 1175
$Comp
L power:GND #PWR0112
U 1 1 5CEF49E2
P 3700 1475
F 0 "#PWR0112" H 3700 1225 50  0001 C CNN
F 1 "GND" H 3705 1302 50  0000 C CNN
F 2 "" H 3700 1475 50  0001 C CNN
F 3 "" H 3700 1475 50  0001 C CNN
	1    3700 1475
	1    0    0    -1  
$EndComp
Wire Wire Line
	3600 1950 3825 1950
Text Label 3600 1950 0    50   ~ 0
Vin
Text Label 5725 1975 0    50   ~ 0
V2P5
$Comp
L Device:R R118
U 1 1 5CEFFF5A
P 5450 1825
F 0 "R118" V 5375 1750 50  0000 L CNN
F 1 "1k" V 5450 1775 50  0000 L CNN
F 2 "Resistor_SMD:R_0402_1005Metric" V 5380 1825 50  0001 C CNN
F 3 "~" H 5450 1825 50  0001 C CNN
	1    5450 1825
	-1   0    0    1   
$EndComp
$Comp
L Device:R R119
U 1 1 5CF058FC
P 5600 1825
F 0 "R119" V 5525 1750 50  0000 L CNN
F 1 "1k" V 5600 1775 50  0000 L CNN
F 2 "Resistor_SMD:R_0402_1005Metric" V 5530 1825 50  0001 C CNN
F 3 "~" H 5600 1825 50  0001 C CNN
	1    5600 1825
	-1   0    0    1   
$EndComp
$Comp
L power:GND #PWR0113
U 1 1 5CF05A80
P 5450 1975
F 0 "#PWR0113" H 5450 1725 50  0001 C CNN
F 1 "GND" H 5455 1802 50  0000 C CNN
F 2 "" H 5450 1975 50  0001 C CNN
F 3 "" H 5450 1975 50  0001 C CNN
	1    5450 1975
	1    0    0    -1  
$EndComp
Wire Wire Line
	5600 1975 5925 1975
Wire Wire Line
	5050 1675 5450 1675
Wire Wire Line
	5450 1675 5600 1675
Connection ~ 5450 1675
$Comp
L Device:R R115
U 1 1 5CF16C05
P 3950 1800
F 0 "R115" V 3875 1725 50  0000 L CNN
F 1 "1k" V 3950 1750 50  0000 L CNN
F 2 "Resistor_SMD:R_0402_1005Metric" V 3880 1800 50  0001 C CNN
F 3 "~" H 3950 1800 50  0001 C CNN
	1    3950 1800
	-1   0    0    1   
$EndComp
$Comp
L Device:R R113
U 1 1 5CF16CD3
P 3825 1800
F 0 "R113" V 3750 1725 50  0000 L CNN
F 1 "1k" V 3825 1750 50  0000 L CNN
F 2 "Resistor_SMD:R_0402_1005Metric" V 3755 1800 50  0001 C CNN
F 3 "~" H 3825 1800 50  0001 C CNN
	1    3825 1800
	-1   0    0    1   
$EndComp
Wire Wire Line
	3950 1625 3950 1650
Wire Wire Line
	3950 1575 3825 1575
Wire Wire Line
	3825 1575 3825 1650
$Comp
L power:GND #PWR0114
U 1 1 5CF2834D
P 3950 1950
F 0 "#PWR0114" H 3950 1700 50  0001 C CNN
F 1 "GND" H 3955 1777 50  0000 C CNN
F 2 "" H 3950 1950 50  0001 C CNN
F 3 "" H 3950 1950 50  0001 C CNN
	1    3950 1950
	1    0    0    -1  
$EndComp
Wire Wire Line
	5050 1375 5450 1375
Wire Wire Line
	5050 1475 5100 1475
Wire Wire Line
	5050 1575 5100 1575
Wire Wire Line
	5100 1575 5100 1475
Connection ~ 5100 1475
Wire Wire Line
	5100 1475 5450 1475
Text Label 5325 1375 0    50   ~ 0
SCL
Text Label 5325 1475 0    50   ~ 0
SDA
Wire Wire Line
	5050 1175 5450 1175
Text Label 5100 1175 0    50   ~ 0
Alert_2V5
$Comp
L MDJ_compo:LTC2945 U102
U 1 1 5CF4154B
P 4500 3250
F 0 "U102" H 4900 2750 50  0000 C CNN
F 1 "LTC2945" H 5025 2650 50  0000 C CNN
F 2 "Package_SO:MSOP-12_3x4mm_P0.65mm" H 3675 2725 50  0001 C CNN
F 3 "http://cds.linear.com/docs/en/datasheet/2945fb.pdf" H 3900 3750 50  0001 C CNN
	1    4500 3250
	1    0    0    -1  
$EndComp
$Comp
L power:GND #PWR0115
U 1 1 5CF41551
P 4500 3800
F 0 "#PWR0115" H 4500 3550 50  0001 C CNN
F 1 "GND" H 4505 3627 50  0000 C CNN
F 2 "" H 4500 3800 50  0001 C CNN
F 3 "" H 4500 3800 50  0001 C CNN
	1    4500 3800
	1    0    0    -1  
$EndComp
$Comp
L Device:R R116
U 1 1 5CF41557
P 4500 2700
F 0 "R116" V 4425 2625 50  0000 L CNN
F 1 "0.2" V 4500 2650 50  0000 L CNN
F 2 "Resistor_SMD:R_1206_3216Metric" V 4430 2700 50  0001 C CNN
F 3 "~" H 4500 2700 50  0001 C CNN
	1    4500 2700
	0    1    1    0   
$EndComp
Wire Wire Line
	4350 2700 4300 2700
Wire Wire Line
	4650 2700 4700 2700
Wire Wire Line
	4300 2700 3900 2700
Connection ~ 4300 2700
Text Label 3900 2700 0    50   ~ 0
V1P2_gen
Text Label 4875 2700 0    50   ~ 0
V1P2
Wire Wire Line
	4700 2700 5050 2700
Connection ~ 4700 2700
$Comp
L Device:C C108
U 1 1 5CF41565
P 3700 3200
F 0 "C108" H 3725 3275 50  0000 L CNN
F 1 "10u" H 3725 3125 50  0000 L CNN
F 2 "Capacitor_SMD:C_0402_1005Metric" H 3738 3050 50  0001 C CNN
F 3 "~" H 3700 3200 50  0001 C CNN
	1    3700 3200
	1    0    0    -1  
$EndComp
Wire Wire Line
	3950 3050 3900 3050
Wire Wire Line
	3900 3050 3900 3150
Wire Wire Line
	3900 3150 3950 3150
Connection ~ 3900 3050
Wire Wire Line
	3900 3050 3700 3050
$Comp
L power:GND #PWR0116
U 1 1 5CF41570
P 3700 3350
F 0 "#PWR0116" H 3700 3100 50  0001 C CNN
F 1 "GND" H 3705 3177 50  0000 C CNN
F 2 "" H 3700 3350 50  0001 C CNN
F 3 "" H 3700 3350 50  0001 C CNN
	1    3700 3350
	1    0    0    -1  
$EndComp
Wire Wire Line
	3950 3825 4175 3825
Text Label 4075 3825 0    50   ~ 0
Vin
Text Label 5400 3550 0    50   ~ 0
V1P2
$Comp
L Device:R R114
U 1 1 5CF4158F
P 3950 3675
F 0 "R114" V 3875 3600 50  0000 L CNN
F 1 "1k" V 3950 3625 50  0000 L CNN
F 2 "Resistor_SMD:R_0402_1005Metric" V 3880 3675 50  0001 C CNN
F 3 "~" H 3950 3675 50  0001 C CNN
	1    3950 3675
	-1   0    0    1   
$EndComp
$Comp
L Device:R R112
U 1 1 5CF41595
P 3825 3675
F 0 "R112" V 3750 3600 50  0000 L CNN
F 1 "1k" V 3825 3625 50  0000 L CNN
F 2 "Resistor_SMD:R_0402_1005Metric" V 3755 3675 50  0001 C CNN
F 3 "~" H 3825 3675 50  0001 C CNN
	1    3825 3675
	-1   0    0    1   
$EndComp
Wire Wire Line
	3950 3500 3950 3525
Wire Wire Line
	3950 3450 3825 3450
Wire Wire Line
	3825 3450 3825 3525
$Comp
L power:GND #PWR0117
U 1 1 5CF4159E
P 3825 3825
F 0 "#PWR0117" H 3825 3575 50  0001 C CNN
F 1 "GND" H 3830 3652 50  0000 C CNN
F 2 "" H 3825 3825 50  0001 C CNN
F 3 "" H 3825 3825 50  0001 C CNN
	1    3825 3825
	1    0    0    -1  
$EndComp
Wire Wire Line
	5050 3250 5450 3250
Wire Wire Line
	5050 3350 5100 3350
Wire Wire Line
	5050 3450 5100 3450
Wire Wire Line
	5100 3450 5100 3350
Connection ~ 5100 3350
Wire Wire Line
	5100 3350 5450 3350
Text Label 5325 3250 0    50   ~ 0
SCL
Text Label 5325 3350 0    50   ~ 0
SDA
Wire Wire Line
	5050 3050 5450 3050
Text Label 5100 3050 0    50   ~ 0
Alert_1V2
Wire Wire Line
	5050 3550 5600 3550
Text Label 1475 1125 0    50   ~ 0
Alert_2V5
Wire Wire Line
	1425 1125 1875 1125
Wire Wire Line
	1250 1025 1875 1025
Text Label 1475 3000 0    50   ~ 0
Alert_1V2
Wire Wire Line
	1425 3000 1875 3000
Wire Wire Line
	1200 2900 1875 2900
Wire Wire Line
	3475 1175 3700 1175
Text Label 3475 1175 0    50   ~ 0
Vin
Connection ~ 3700 1175
Wire Wire Line
	3475 3050 3700 3050
Text Label 3475 3050 0    50   ~ 0
Vin
Connection ~ 3700 3050
$Comp
L Connector_Generic:Conn_02x03_Odd_Even J102
U 1 1 5CFBF20B
P 8475 1375
F 0 "J102" H 8525 1692 50  0000 C CNN
F 1 "Conn_02x03_Odd_Even" H 8525 1601 50  0000 C CNN
F 2 "Connector_PinHeader_2.54mm:PinHeader_2x03_P2.54mm_Vertical" H 8475 1375 50  0001 C CNN
F 3 "~" H 8475 1375 50  0001 C CNN
	1    8475 1375
	1    0    0    -1  
$EndComp
Wire Wire Line
	9050 1475 8775 1475
Text Label 8825 1375 0    50   ~ 0
GPIO3
Text Label 8025 1275 0    50   ~ 0
SDA
Text Label 8825 1275 0    50   ~ 0
SCL
$Comp
L power:GND #PWR0118
U 1 1 5CFFE8BF
P 9050 1475
F 0 "#PWR0118" H 9050 1225 50  0001 C CNN
F 1 "GND" H 9055 1302 50  0000 C CNN
F 2 "" H 9050 1475 50  0001 C CNN
F 3 "" H 9050 1475 50  0001 C CNN
	1    9050 1475
	1    0    0    -1  
$EndComp
Wire Wire Line
	8275 1475 8000 1475
Text Label 8025 1475 0    50   ~ 0
VCC0
Text Label 8025 1375 0    50   ~ 0
GPIO2
$Comp
L Device:R R120
U 1 1 5CEE2F07
P 7825 1125
F 0 "R120" V 7750 1050 50  0000 L CNN
F 1 "1k" V 7825 1075 50  0000 L CNN
F 2 "Resistor_SMD:R_0402_1005Metric" V 7755 1125 50  0001 C CNN
F 3 "~" H 7825 1125 50  0001 C CNN
	1    7825 1125
	-1   0    0    1   
$EndComp
Wire Wire Line
	7825 700  7825 975 
Text Label 7825 950  1    50   ~ 0
VCC0
$Comp
L Device:R R121
U 1 1 5CF055C4
P 9200 1125
F 0 "R121" V 9125 1050 50  0000 L CNN
F 1 "1k" V 9200 1075 50  0000 L CNN
F 2 "Resistor_SMD:R_0402_1005Metric" V 9130 1125 50  0001 C CNN
F 3 "~" H 9200 1125 50  0001 C CNN
	1    9200 1125
	-1   0    0    1   
$EndComp
Wire Wire Line
	9200 700  9200 975 
Text Label 9200 950  1    50   ~ 0
VCC0
Wire Wire Line
	8775 1275 9200 1275
Wire Wire Line
	7825 1275 8275 1275
$Comp
L Device:R R123
U 1 1 5CF53F6F
P 5450 1025
F 0 "R123" V 5375 950 50  0000 L CNN
F 1 "1k" V 5450 975 50  0000 L CNN
F 2 "Resistor_SMD:R_0402_1005Metric" V 5380 1025 50  0001 C CNN
F 3 "~" H 5450 1025 50  0001 C CNN
	1    5450 1025
	-1   0    0    1   
$EndComp
Wire Wire Line
	5450 600  5450 875 
Text Label 5450 850  1    50   ~ 0
VCC0
$Comp
L Device:R R122
U 1 1 5CF5CBEA
P 5450 2900
F 0 "R122" V 5375 2825 50  0000 L CNN
F 1 "1k" V 5450 2850 50  0000 L CNN
F 2 "Resistor_SMD:R_0402_1005Metric" V 5380 2900 50  0001 C CNN
F 3 "~" H 5450 2900 50  0001 C CNN
	1    5450 2900
	-1   0    0    1   
$EndComp
Wire Wire Line
	5450 2475 5450 2750
Text Label 5450 2725 1    50   ~ 0
VCC0
$Comp
L Device:C C110
U 1 1 5CF669A1
P 8000 1625
F 0 "C110" H 8025 1700 50  0000 L CNN
F 1 "10u" H 8025 1550 50  0000 L CNN
F 2 "Capacitor_SMD:C_0402_1005Metric" H 8038 1475 50  0001 C CNN
F 3 "~" H 8000 1625 50  0001 C CNN
	1    8000 1625
	1    0    0    -1  
$EndComp
$Comp
L power:GND #PWR0119
U 1 1 5CF669A7
P 8000 1775
F 0 "#PWR0119" H 8000 1525 50  0001 C CNN
F 1 "GND" H 8005 1602 50  0000 C CNN
F 2 "" H 8000 1775 50  0001 C CNN
F 3 "" H 8000 1775 50  0001 C CNN
	1    8000 1775
	1    0    0    -1  
$EndComp
Text Label 9725 1675 0    50   ~ 0
V2P5
$Comp
L Device:R R126
U 1 1 5CF5750A
P 9450 1525
F 0 "R126" V 9375 1450 50  0000 L CNN
F 1 "1k" V 9450 1475 50  0000 L CNN
F 2 "Resistor_SMD:R_0402_1005Metric" V 9380 1525 50  0001 C CNN
F 3 "~" H 9450 1525 50  0001 C CNN
	1    9450 1525
	-1   0    0    1   
$EndComp
$Comp
L Device:R R127
U 1 1 5CF57510
P 9600 1525
F 0 "R127" V 9525 1450 50  0000 L CNN
F 1 "3k" V 9600 1475 50  0000 L CNN
F 2 "Resistor_SMD:R_0402_1005Metric" V 9530 1525 50  0001 C CNN
F 3 "~" H 9600 1525 50  0001 C CNN
	1    9600 1525
	-1   0    0    1   
$EndComp
$Comp
L power:GND #PWR0120
U 1 1 5CF57516
P 9450 1675
F 0 "#PWR0120" H 9450 1425 50  0001 C CNN
F 1 "GND" H 9455 1502 50  0000 C CNN
F 2 "" H 9450 1675 50  0001 C CNN
F 3 "" H 9450 1675 50  0001 C CNN
	1    9450 1675
	1    0    0    -1  
$EndComp
Wire Wire Line
	9600 1675 9925 1675
Wire Wire Line
	9450 1375 9600 1375
Connection ~ 9450 1375
Wire Wire Line
	8775 1375 9450 1375
Text Label 7325 1675 2    50   ~ 0
V1P2
$Comp
L Device:R R125
U 1 1 5CF72BFB
P 7600 1525
F 0 "R125" V 7525 1450 50  0000 L CNN
F 1 "1k" V 7600 1475 50  0000 L CNN
F 2 "Resistor_SMD:R_0402_1005Metric" V 7530 1525 50  0001 C CNN
F 3 "~" H 7600 1525 50  0001 C CNN
	1    7600 1525
	1    0    0    1   
$EndComp
$Comp
L Device:R R124
U 1 1 5CF72C01
P 7450 1525
F 0 "R124" V 7375 1450 50  0000 L CNN
F 1 "1k" V 7450 1475 50  0000 L CNN
F 2 "Resistor_SMD:R_0402_1005Metric" V 7380 1525 50  0001 C CNN
F 3 "~" H 7450 1525 50  0001 C CNN
	1    7450 1525
	1    0    0    1   
$EndComp
$Comp
L power:GND #PWR0121
U 1 1 5CF72C07
P 7600 1675
F 0 "#PWR0121" H 7600 1425 50  0001 C CNN
F 1 "GND" H 7605 1502 50  0000 C CNN
F 2 "" H 7600 1675 50  0001 C CNN
F 3 "" H 7600 1675 50  0001 C CNN
	1    7600 1675
	-1   0    0    -1  
$EndComp
Wire Wire Line
	7450 1675 7125 1675
Wire Wire Line
	7600 1375 7450 1375
Connection ~ 7600 1375
Wire Wire Line
	8275 1375 7600 1375
$Comp
L Device:Thermistor TH101
U 1 1 5CF8FE87
P 2925 5625
F 0 "TH101" V 2683 5625 50  0000 C CNN
F 1 "Thermistor-100k" V 2774 5625 50  0000 C CNN
F 2 "Resistor_SMD:R_0402_1005Metric" H 2925 5625 50  0001 C CNN
F 3 "~" H 2925 5625 50  0001 C CNN
	1    2925 5625
	0    1    1    0   
$EndComp
Wire Wire Line
	3125 5725 3125 5625
Wire Wire Line
	2275 5725 3125 5725
$EndSCHEMATC
