Drill report for /data/cms/ecal/fe/lvrb_noMB_Isense/lvrb_noMB_Isense.kicad_pcb
Created on mar. 04 juin 2019 08:42:26 CEST

Copper Layer Stackup:
    =============================================================
    L1 :  F.Cu                      front
    L2 :  In1.Cu                    in1
    L3 :  In2.Cu                    in2
    L4 :  B.Cu                      back


Drill file 'lvrb_noMB_Isense-PTH.drl' contains
    plated through holes:
    =============================================================
    T1  0,40mm  0,016"  (35 holes)
    T2  0,80mm  0,031"  (2 holes)
    T3  0,90mm  0,035"  (2 holes)  (with 2 slots)
    T4  1,00mm  0,039"  (6 holes)
    T5  1,02mm  0,040"  (49 holes)
    T6  1,10mm  0,043"  (1 hole)  (with 1 slot)
    T7  1,50mm  0,059"  (1 hole)
    T8  1,70mm  0,067"  (4 holes)

    Total plated holes count 100


Drill file 'lvrb_noMB_Isense-NPTH.drl' contains
    unplated through holes:
    =============================================================
    T1  2,70mm  0,106"  (2 holes)

    Total unplated holes count 2
