M48
;DRILL file {KiCad 5.0.2-5.fc29} date mar. 04 juin 2019 08:43:10 CEST
;FORMAT={-:-/ absolute / metric / decimal}
FMAT,2
METRIC,TZ
T1C0.400
T2C0.800
T3C0.900
T4C1.000
T5C1.016
T6C1.100
T7C1.500
T8C1.700
%
G90
G05
T1
X81.5Y-60.825
X81.55Y-53.625
X85.85Y-53.625
X85.875Y-60.825
X93.2Y-55.61
X93.2Y-56.61
X97.022Y-58.86
X97.05Y-58.06
X99.35Y-56.775
X102.675Y-58.925
X103.325Y-57.46
X103.325Y-58.185
X103.9Y-58.925
X105.05Y-59.55
X105.075Y-56.885
X109.366Y-57.557
X113.684Y-58.446
X113.684Y-54.001
X115.425Y-59.45
X119.05Y-57.25
X119.075Y-55.25
X119.075Y-58.2
X119.075Y-59.2
X121.975Y-59.4
X126.65Y-59.9
X128.575Y-57.975
X128.575Y-58.7
X128.575Y-59.425
X128.575Y-60.2
X130.72Y-59.913
X130.725Y-56.96
X135.038Y-57.564
X139.356Y-58.453
X139.356Y-61.12
X140.05Y-54.725
T2
X166.8Y-56.7
X170.3Y-56.7
T4
X81.27Y-55.95
X81.27Y-58.49
X83.81Y-55.95
X83.81Y-58.49
X86.35Y-55.95
X86.35Y-58.49
T5
X86.423Y-48.5
X88.963Y-45.96
X88.963Y-48.5
X91.504Y-45.96
X91.504Y-48.5
X94.043Y-45.96
X94.043Y-48.5
X96.584Y-45.96
X96.584Y-48.5
X99.123Y-45.96
X99.123Y-48.5
X101.663Y-45.96
X101.663Y-48.5
X104.203Y-45.96
X104.203Y-48.5
X106.743Y-45.96
X106.743Y-48.5
X109.283Y-45.96
X109.283Y-48.5
X111.823Y-45.96
X111.823Y-48.5
X114.363Y-45.96
X114.363Y-48.5
X116.903Y-45.96
X116.903Y-48.5
X119.444Y-45.96
X119.444Y-48.5
X121.983Y-45.96
X121.983Y-48.5
X124.523Y-45.96
X124.523Y-48.5
X127.063Y-45.96
X127.063Y-48.5
X129.603Y-45.96
X129.603Y-48.5
X132.143Y-45.96
X132.143Y-48.5
X134.683Y-45.96
X134.683Y-48.5
X137.224Y-45.96
X137.224Y-48.5
X139.763Y-45.96
X139.763Y-48.5
X142.303Y-45.96
X142.303Y-48.5
X144.844Y-45.96
X144.844Y-48.5
X147.383Y-45.96
X147.383Y-48.5
T7
X66.Y-51.
T8
X63.46Y-48.46
X63.46Y-53.54
X68.54Y-48.46
X68.54Y-53.54
T3
X164.45Y-42.3G85X162.15Y-42.3
G05
X166.55Y-48.25G85X166.55Y-45.95
G05
T6
X160.3Y-48.35G85X160.3Y-45.85
G05
T0
M30
